{
  "name": "Paulo Ricardo",
  "picture" : "https://media.licdn.com/mpr/mpr/shrinknp_200_200/p/1/005/064/0ce/03703e7.jpg",
  "email": "paulo@email.com.br",
  "balance": "R$ 1.234,90",
  "newAffiliates" : 121,
  "newMessages" : 50,
  "newNotifications": 15
}